{
    "tracks": {
        "href": "https://api.spotify.com/v1/search?query=songs&type=track&offset=0&limit=2",
        "items": [
            {
                "album": {
                    "album_type": "single",
                    "artists": [
                        {
                            "external_urls": {
                                "spotify": "https://open.spotify.com/artist/0qSX3s5pJnAlSsgsCne8Cz"
                            },
                            "href": "https://api.spotify.com/v1/artists/0qSX3s5pJnAlSsgsCne8Cz",
                            "id": "0qSX3s5pJnAlSsgsCne8Cz",
                            "name": "Brett Eldredge",
                            "type": "artist",
                            "uri": "spotify:artist:0qSX3s5pJnAlSsgsCne8Cz"
                        }
                    ],
                    "available_markets": [
                        "AD",
                        "AE",
                        "AG",
                        "AL",
                        "AM",
                        "AO",
                        "AR",
                        "AT",
                        "AU",
                        "AZ",
                        "BA",
                        "BB",
                        "BD",
                        "BE",
                        "BF",
                        "BG",
                        "BH",
                        "BI",
                        "BJ",
                        "BN",
                        "BO",
                        "BR",
                        "BS",
                        "BT",
                        "BW",
                        "BZ",
                        "CA",
                        "CD",
                        "CG",
                        "CH",
                        "CI",
                        "CL",
                        "CM",
                        "CO",
                        "CR",
                        "CV",
                        "CW",
                        "CY",
                        "CZ",
                        "DE",
                        "DJ",
                        "DK",
                        "DM",
                        "DO",
                        "DZ",
                        "EC",
                        "EE",
                        "EG",
                        "ES",
                        "FI",
                        "FJ",
                        "FM",
                        "FR",
                        "GA",
                        "GB",
                        "GD",
                        "GE",
                        "GH",
                        "GM",
                        "GN",
                        "GQ",
                        "GR",
                        "GT",
                        "GW",
                        "GY",
                        "HK",
                        "HN",
                        "HR",
                        "HT",
                        "HU",
                        "ID",
                        "IE",
                        "IL",
                        "IN",
                        "IQ",
                        "IS",
                        "IT",
                        "JM",
                        "JO",
                        "JP",
                        "KE",
                        "KG",
                        "KH",
                        "KI",
                        "KM",
                        "KN",
                        "KR",
                        "KW",
                        "KZ",
                        "LA",
                        "LB",
                        "LC",
                        "LI",
                        "LK",
                        "LR",
                        "LS",
                        "LT",
                        "LU",
                        "LV",
                        "LY",
                        "MA",
                        "MC",
                        "MD",
                        "ME",
                        "MG",
                        "MH",
                        "MK",
                        "ML",
                        "MN",
                        "MO",
                        "MR",
                        "MT",
                        "MU",
                        "MV",
                        "MW",
                        "MX",
                        "MY",
                        "MZ",
                        "NA",
                        "NE",
                        "NG",
                        "NI",
                        "NL",
                        "NO",
                        "NP",
                        "NR",
                        "NZ",
                        "OM",
                        "PA",
                        "PE",
                        "PG",
                        "PH",
                        "PK",
                        "PL",
                        "PS",
                        "PT",
                        "PW",
                        "PY",
                        "QA",
                        "RO",
                        "RS",
                        "RW",
                        "SA",
                        "SB",
                        "SC",
                        "SE",
                        "SG",
                        "SI",
                        "SK",
                        "SL",
                        "SM",
                        "SN",
                        "SR",
                        "ST",
                        "SV",
                        "SZ",
                        "TD",
                        "TG",
                        "TH",
                        "TJ",
                        "TL",
                        "TN",
                        "TO",
                        "TR",
                        "TT",
                        "TV",
                        "TW",
                        "TZ",
                        "UA",
                        "UG",
                        "US",
                        "UY",
                        "UZ",
                        "VC",
                        "VE",
                        "VN",
                        "VU",
                        "WS",
                        "XK",
                        "ZA",
                        "ZM",
                        "ZW"
                    ],
                    "external_urls": {
                        "spotify": "https://open.spotify.com/album/6xTN7k2LmB4rrMLmMQMzWq"
                    },
                    "href": "https://api.spotify.com/v1/albums/6xTN7k2LmB4rrMLmMQMzWq",
                    "id": "6xTN7k2LmB4rrMLmMQMzWq",
                    "images": [
                        {
                            "height": 640,
                            "url": "https://i.scdn.co/image/ab67616d0000b273853b4df4185c3b4be53db60e",
                            "width": 640
                        },
                        {
                            "height": 300,
                            "url": "https://i.scdn.co/image/ab67616d00001e02853b4df4185c3b4be53db60e",
                            "width": 300
                        },
                        {
                            "height": 64,
                            "url": "https://i.scdn.co/image/ab67616d00004851853b4df4185c3b4be53db60e",
                            "width": 64
                        }
                    ],
                    "name": "Songs About You",
                    "release_date": "2022-04-22",
                    "release_date_precision": "day",
                    "total_tracks": 3,
                    "type": "album",
                    "uri": "spotify:album:6xTN7k2LmB4rrMLmMQMzWq"
                },
                "artists": [
                    {
                        "external_urls": {
                            "spotify": "https://open.spotify.com/artist/0qSX3s5pJnAlSsgsCne8Cz"
                        },
                        "href": "https://api.spotify.com/v1/artists/0qSX3s5pJnAlSsgsCne8Cz",
                        "id": "0qSX3s5pJnAlSsgsCne8Cz",
                        "name": "Brett Eldredge",
                        "type": "artist",
                        "uri": "spotify:artist:0qSX3s5pJnAlSsgsCne8Cz"
                    }
                ],
                "available_markets": [
                    "AD",
                    "AE",
                    "AG",
                    "AL",
                    "AM",
                    "AO",
                    "AR",
                    "AT",
                    "AU",
                    "AZ",
                    "BA",
                    "BB",
                    "BD",
                    "BE",
                    "BF",
                    "BG",
                    "BH",
                    "BI",
                    "BJ",
                    "BN",
                    "BO",
                    "BR",
                    "BS",
                    "BT",
                    "BW",
                    "BZ",
                    "CA",
                    "CD",
                    "CG",
                    "CH",
                    "CI",
                    "CL",
                    "CM",
                    "CO",
                    "CR",
                    "CV",
                    "CW",
                    "CY",
                    "CZ",
                    "DE",
                    "DJ",
                    "DK",
                    "DM",
                    "DO",
                    "DZ",
                    "EC",
                    "EE",
                    "EG",
                    "ES",
                    "FI",
                    "FJ",
                    "FM",
                    "FR",
                    "GA",
                    "GB",
                    "GD",
                    "GE",
                    "GH",
                    "GM",
                    "GN",
                    "GQ",
                    "GR",
                    "GT",
                    "GW",
                    "GY",
                    "HK",
                    "HN",
                    "HR",
                    "HT",
                    "HU",
                    "ID",
                    "IE",
                    "IL",
                    "IN",
                    "IQ",
                    "IS",
                    "IT",
                    "JM",
                    "JO",
                    "JP",
                    "KE",
                    "KG",
                    "KH",
                    "KI",
                    "KM",
                    "KN",
                    "KR",
                    "KW",
                    "KZ",
                    "LA",
                    "LB",
                    "LC",
                    "LI",
                    "LK",
                    "LR",
                    "LS",
                    "LT",
                    "LU",
                    "LV",
                    "LY",
                    "MA",
                    "MC",
                    "MD",
                    "ME",
                    "MG",
                    "MH",
                    "MK",
                    "ML",
                    "MN",
                    "MO",
                    "MR",
                    "MT",
                    "MU",
                    "MV",
                    "MW",
                    "MX",
                    "MY",
                    "MZ",
                    "NA",
                    "NE",
                    "NG",
                    "NI",
                    "NL",
                    "NO",
                    "NP",
                    "NR",
                    "NZ",
                    "OM",
                    "PA",
                    "PE",
                    "PG",
                    "PH",
                    "PK",
                    "PL",
                    "PS",
                    "PT",
                    "PW",
                    "PY",
                    "QA",
                    "RO",
                    "RS",
                    "RW",
                    "SA",
                    "SB",
                    "SC",
                    "SE",
                    "SG",
                    "SI",
                    "SK",
                    "SL",
                    "SM",
                    "SN",
                    "SR",
                    "ST",
                    "SV",
                    "SZ",
                    "TD",
                    "TG",
                    "TH",
                    "TJ",
                    "TL",
                    "TN",
                    "TO",
                    "TR",
                    "TT",
                    "TV",
                    "TW",
                    "TZ",
                    "UA",
                    "UG",
                    "US",
                    "UY",
                    "UZ",
                    "VC",
                    "VE",
                    "VN",
                    "VU",
                    "WS",
                    "XK",
                    "ZA",
                    "ZM",
                    "ZW"
                ],
                "disc_number": 1,
                "duration_ms": 202386,
                "explicit": false,
                "external_ids": {
                    "isrc": "USWB12201051"
                },
                "external_urls": {
                    "spotify": "https://open.spotify.com/track/7qox7CiK5Kf25oBxCA0rY5"
                },
                "href": "https://api.spotify.com/v1/tracks/7qox7CiK5Kf25oBxCA0rY5",
                "id": "7qox7CiK5Kf25oBxCA0rY5",
                "is_local": false,
                "name": "Songs About You",
                "popularity": 60,
                "preview_url": "https://p.scdn.co/mp3-preview/d680bce10d1de36d57d5f357ab9a91e943766240?cid=a65296c5b26b4936976be1d8ed4177e8",
                "track_number": 1,
                "type": "track",
                "uri": "spotify:track:7qox7CiK5Kf25oBxCA0rY5"
            },
            {
                "album": {
                    "album_type": "album",
                    "artists": [
                        {
                            "external_urls": {
                                "spotify": "https://open.spotify.com/artist/4bthk9UfsYUYdcFyqxmSUU"
                            },
                            "href": "https://api.spotify.com/v1/artists/4bthk9UfsYUYdcFyqxmSUU",
                            "id": "4bthk9UfsYUYdcFyqxmSUU",
                            "name": "Tears For Fears",
                            "type": "artist",
                            "uri": "spotify:artist:4bthk9UfsYUYdcFyqxmSUU"
                        }
                    ],
                    "available_markets": [
                        "AD",
                        "AE",
                        "AG",
                        "AL",
                        "AM",
                        "AO",
                        "AR",
                        "AT",
                        "AU",
                        "AZ",
                        "BA",
                        "BB",
                        "BD",
                        "BE",
                        "BF",
                        "BG",
                        "BH",
                        "BI",
                        "BJ",
                        "BN",
                        "BO",
                        "BR",
                        "BS",
                        "BT",
                        "BW",
                        "BY",
                        "BZ",
                        "CA",
                        "CD",
                        "CG",
                        "CH",
                        "CI",
                        "CL",
                        "CM",
                        "CO",
                        "CR",
                        "CV",
                        "CW",
                        "CY",
                        "CZ",
                        "DE",
                        "DJ",
                        "DK",
                        "DM",
                        "DO",
                        "DZ",
                        "EC",
                        "EE",
                        "EG",
                        "ES",
                        "FI",
                        "FJ",
                        "FM",
                        "FR",
                        "GA",
                        "GB",
                        "GD",
                        "GE",
                        "GH",
                        "GM",
                        "GN",
                        "GQ",
                        "GR",
                        "GT",
                        "GW",
                        "GY",
                        "HK",
                        "HN",
                        "HR",
                        "HT",
                        "HU",
                        "ID",
                        "IE",
                        "IL",
                        "IN",
                        "IQ",
                        "IS",
                        "IT",
                        "JM",
                        "JO",
                        "JP",
                        "KE",
                        "KG",
                        "KH",
                        "KI",
                        "KM",
                        "KN",
                        "KR",
                        "KW",
                        "KZ",
                        "LA",
                        "LB",
                        "LC",
                        "LI",
                        "LK",
                        "LR",
                        "LS",
                        "LT",
                        "LU",
                        "LV",
                        "LY",
                        "MA",
                        "MC",
                        "MD",
                        "ME",
                        "MG",
                        "MH",
                        "MK",
                        "ML",
                        "MN",
                        "MO",
                        "MR",
                        "MT",
                        "MU",
                        "MV",
                        "MW",
                        "MX",
                        "MY",
                        "MZ",
                        "NA",
                        "NE",
                        "NG",
                        "NI",
                        "NL",
                        "NO",
                        "NP",
                        "NR",
                        "NZ",
                        "OM",
                        "PA",
                        "PE",
                        "PG",
                        "PH",
                        "PK",
                        "PL",
                        "PS",
                        "PT",
                        "PW",
                        "PY",
                        "QA",
                        "RO",
                        "RS",
                        "RW",
                        "SA",
                        "SB",
                        "SC",
                        "SE",
                        "SG",
                        "SI",
                        "SK",
                        "SL",
                        "SM",
                        "SN",
                        "SR",
                        "ST",
                        "SV",
                        "SZ",
                        "TD",
                        "TG",
                        "TH",
                        "TJ",
                        "TL",
                        "TN",
                        "TO",
                        "TR",
                        "TT",
                        "TV",
                        "TW",
                        "TZ",
                        "UA",
                        "UG",
                        "US",
                        "UY",
                        "UZ",
                        "VC",
                        "VE",
                        "VN",
                        "VU",
                        "WS",
                        "XK",
                        "ZA",
                        "ZM",
                        "ZW"
                    ],
                    "external_urls": {
                        "spotify": "https://open.spotify.com/album/3myPwaMYjdwhtq0nFgeG6W"
                    },
                    "href": "https://api.spotify.com/v1/albums/3myPwaMYjdwhtq0nFgeG6W",
                    "id": "3myPwaMYjdwhtq0nFgeG6W",
                    "images": [
                        {
                            "height": 640,
                            "url": "https://i.scdn.co/image/ab67616d0000b27322463d6939fec9e17b2a6235",
                            "width": 640
                        },
                        {
                            "height": 300,
                            "url": "https://i.scdn.co/image/ab67616d00001e0222463d6939fec9e17b2a6235",
                            "width": 300
                        },
                        {
                            "height": 64,
                            "url": "https://i.scdn.co/image/ab67616d0000485122463d6939fec9e17b2a6235",
                            "width": 64
                        }
                    ],
                    "name": "Songs From The Big Chair (Super Deluxe Edition)",
                    "release_date": "1985-02-25",
                    "release_date_precision": "day",
                    "total_tracks": 59,
                    "type": "album",
                    "uri": "spotify:album:3myPwaMYjdwhtq0nFgeG6W"
                },
                "artists": [
                    {
                        "external_urls": {
                            "spotify": "https://open.spotify.com/artist/4bthk9UfsYUYdcFyqxmSUU"
                        },
                        "href": "https://api.spotify.com/v1/artists/4bthk9UfsYUYdcFyqxmSUU",
                        "id": "4bthk9UfsYUYdcFyqxmSUU",
                        "name": "Tears For Fears",
                        "type": "artist",
                        "uri": "spotify:artist:4bthk9UfsYUYdcFyqxmSUU"
                    }
                ],
                "available_markets": [
                    "AD",
                    "AE",
                    "AG",
                    "AL",
                    "AM",
                    "AO",
                    "AR",
                    "AT",
                    "AU",
                    "AZ",
                    "BA",
                    "BB",
                    "BD",
                    "BE",
                    "BF",
                    "BG",
                    "BH",
                    "BI",
                    "BJ",
                    "BN",
                    "BO",
                    "BR",
                    "BS",
                    "BT",
                    "BW",
                    "BY",
                    "BZ",
                    "CA",
                    "CD",
                    "CG",
                    "CH",
                    "CI",
                    "CL",
                    "CM",
                    "CO",
                    "CR",
                    "CV",
                    "CW",
                    "CY",
                    "CZ",
                    "DE",
                    "DJ",
                    "DK",
                    "DM",
                    "DO",
                    "DZ",
                    "EC",
                    "EE",
                    "EG",
                    "ES",
                    "FI",
                    "FJ",
                    "FM",
                    "FR",
                    "GA",
                    "GB",
                    "GD",
                    "GE",
                    "GH",
                    "GM",
                    "GN",
                    "GQ",
                    "GR",
                    "GT",
                    "GW",
                    "GY",
                    "HK",
                    "HN",
                    "HR",
                    "HT",
                    "HU",
                    "ID",
                    "IE",
                    "IL",
                    "IN",
                    "IQ",
                    "IS",
                    "IT",
                    "JM",
                    "JO",
                    "JP",
                    "KE",
                    "KG",
                    "KH",
                    "KI",
                    "KM",
                    "KN",
                    "KR",
                    "KW",
                    "KZ",
                    "LA",
                    "LB",
                    "LC",
                    "LI",
                    "LK",
                    "LR",
                    "LS",
                    "LT",
                    "LU",
                    "LV",
                    "LY",
                    "MA",
                    "MC",
                    "MD",
                    "ME",
                    "MG",
                    "MH",
                    "MK",
                    "ML",
                    "MN",
                    "MO",
                    "MR",
                    "MT",
                    "MU",
                    "MV",
                    "MW",
                    "MX",
                    "MY",
                    "MZ",
                    "NA",
                    "NE",
                    "NG",
                    "NI",
                    "NL",
                    "NO",
                    "NP",
                    "NR",
                    "NZ",
                    "OM",
                    "PA",
                    "PE",
                    "PG",
                    "PH",
                    "PK",
                    "PL",
                    "PS",
                    "PT",
                    "PW",
                    "PY",
                    "QA",
                    "RO",
                    "RS",
                    "RW",
                    "SA",
                    "SB",
                    "SC",
                    "SE",
                    "SG",
                    "SI",
                    "SK",
                    "SL",
                    "SM",
                    "SN",
                    "SR",
                    "ST",
                    "SV",
                    "SZ",
                    "TD",
                    "TG",
                    "TH",
                    "TJ",
                    "TL",
                    "TN",
                    "TO",
                    "TR",
                    "TT",
                    "TV",
                    "TW",
                    "TZ",
                    "UA",
                    "UG",
                    "US",
                    "UY",
                    "UZ",
                    "VC",
                    "VE",
                    "VN",
                    "VU",
                    "WS",
                    "XK",
                    "ZA",
                    "ZM",
                    "ZW"
                ],
                "disc_number": 1,
                "duration_ms": 251488,
                "explicit": false,
                "external_ids": {
                    "isrc": "GBF088590110"
                },
                "external_urls": {
                    "spotify": "https://open.spotify.com/track/4RvWPyQ5RL0ao9LPZeSouE"
                },
                "href": "https://api.spotify.com/v1/tracks/4RvWPyQ5RL0ao9LPZeSouE",
                "id": "4RvWPyQ5RL0ao9LPZeSouE",
                "is_local": false,
                "name": "Everybody Wants To Rule The World",
                "popularity": 83,
                "preview_url": null,
                "track_number": 3,
                "type": "track",
                "uri": "spotify:track:4RvWPyQ5RL0ao9LPZeSouE"
            }
        ],
        "limit": 2,
        "next": "https://api.spotify.com/v1/search?query=songs&type=track&offset=2&limit=2",
        "offset": 0,
        "previous": null,
        "total": 10066
    }
}